BKM Homework
…
###Analysis

##Total Transactions from Jan 2017 to June 2019

total_transactions <- tables_united_clear%>%
  select(kategori, kk_islem_adedi,bk_islem_adedi) %>%
  group_by(kategori)%>%
  summarise(kk_islem_adedi=sum(kk_islem_adedi),bk_islem_adedi=sum(bk_islem_adedi))%>%
  mutate(total_trans=kk_islem_adedi+bk_islem_adedi)%>%
  arrange(desc(total_trans))

total_transactions  

## # A tibble: 26 x 4
##    kategori                       kk_islem_adedi bk_islem_adedi total_trans
##    <chr>                                   <dbl>          <dbl>       <dbl>
##  1 MARKET VE ALIVER MERKEZLER     2762831050     1392698054  4155529104
##  2 YEMEK                              1087541276      900976680  1988517956
##  3 ETL GIDA                        750890952      417324898  1168215850
##  4 GYM VE AKSESUAR                   811099235      297653970  1108753205
##  5 BENZN VE YAKIT STASYONLARI        809769482      278936262  1088705744
##  6 HZMET SEKTRLER                   552345940      138892136   691238076
##  7 SALIK/SALIK RNLER/KOZMET      390454048      173606236   564060284
##  8 TELEKOMNKASYON                    428471230       74722137   503193367
##  9 DER                               135394310      257558018   392952328
## 10 ELEKTRK-ELEKTRONK EYA, BL      215340696       53635846   268976542
## #  with 16 more rows
…
##Average Spending per transaction by category
average_spending_all <- tables_united_clear%>%
  select(kategori, kk_islem_adedi,bk_islem_adedi,kk_islem_tutari,bk_islem_tutari) %>%
  group_by(kategori)%>%
  summarise(kk_islem_adedi=sum(kk_islem_adedi),bk_islem_adedi=sum(bk_islem_adedi),kk_islem_tutari=sum(kk_islem_tutari),bk_islem_tutari=sum(bk_islem_tutari))%>%
  mutate(total_trans=kk_islem_adedi+bk_islem_adedi, total_spending=kk_islem_tutari+bk_islem_tutari,average_spending=(total_spending/total_trans)*100000 )%>%
  arrange(desc(average_spending))
average_spending_all  

## # A tibble: 26 x 8
##    kategori kk_islem_adedi bk_islem_adedi kk_islem_tutari bk_islem_tutari
##    <chr>             <dbl>          <dbl>           <dbl>           <dbl>
##  1 MTEAHH       17086819        5579997          19740.            889.
##  2 KUYUMCU       30926666       10064088          26716.           6820.
##  3 DORUDA       22658874        1050650          17327.            286.
##  4 HAVAYOL       60409730       10668159          37346.          11127.
##  5 ARA K       93689324       19594468          66318.           3928.
##  6 ARABA K        9071164        1597444           5826.            536.
##  7 YAPI MA      105943956       30243320          73760.           4436.
##  8 SGORTA       150532354         745012          82441.            270.
##  9 KONAKLA       54344284       23724559          32822.           8026.
## 10 KAMU/VE      114323861       32445823          54831.           4194.
## #  with 16 more rows, and 3 more variables: total_trans <dbl>,
## #   total_spending <dbl>, average_spending <dbl>
…
## # A tibble: 3 x 2
##   kategori                       kk_islem_tutari
##   <chr>                                    <dbl>
## 1 MARKET VE ALIVER MERKEZLER         306239.
## 2 BENZN VE YAKIT STASYONLARI           157509.
## 3 GYM VE AKSESUAR                      130276.

cc_spendings_monthly<-tables_united_clear%>%
  group_by(kategori,year_month)%>%
  summarise(kk_islem_tutari=sum(kk_islem_tutari))%>%
  filter(kategori %in% c("MARKET VE ALIVER MERKEZLER","BENZN VE YAKIT STASYONLARI","ETL GIDA"))
cc_spendings_monthly

## # A tibble: 90 x 3
## # Groups:   kategori [3]
##    kategori                     year_month kk_islem_tutari
##    <chr>                        <chr>                <dbl>
##  1 BENZN VE YAKIT STASYONLARI 2017/1               3861.
##  2 BENZN VE YAKIT STASYONLARI 2017/10              5003.
##  3 BENZN VE YAKIT STASYONLARI 2017/11              4860.
##  4 BENZN VE YAKIT STASYONLARI 2017/12              4894.
##  5 BENZN VE YAKIT STASYONLARI 2017/2               3789.
##  6 BENZN VE YAKIT STASYONLARI 2017/3               4402.
##  7 BENZN VE YAKIT STASYONLARI 2017/4               4195.
##  8 BENZN VE YAKIT STASYONLARI 2017/5               4349.
##  9 BENZN VE YAKIT STASYONLARI 2017/6               4292.
## 10 BENZN VE YAKIT STASYONLARI 2017/7               4926.
## #  with 80 more rows
…
